{
	"commentStamp" : "TimM 8/8/2017 16:21",
	"super" : "AWSS3",
	"category" : "LambdaRuntime",
	"classinstvars" : [ ],
	"pools" : [ ],
	"classvars" : [ ],
	"instvars" : [ ],
	"name" : "AWSS3Zip",
	"type" : "normal"
}